#202 - Avignon | 

owner = A24
controller = A24
add_core = A24
culture = moorman
religion = regent_court

hre = no

base_tax = 4
base_production = 4
base_manpower = 3

trade_goods = cloth

capital = ""

is_city = yes










