#360 - Qena

owner = A32
controller = A32
add_core = A32
culture = moon_elf
religion = elven_forebears

hre = no

base_tax = 7
base_production = 7
base_manpower = 4

trade_goods = grain

capital = ""

is_city = yes








